2.628083727264404388e+02
2.690364631652832017e+01
1.745381066322326546e+01
1.540931658744812083e+01
1.409935644149780209e+01
1.310755146026611406e+01
1.216531405448913539e+01
1.129758067131042409e+01
1.066535616874694803e+01
1.010900206565856863e+01
9.624647617340087891e+00
9.129237585067748739e+00
8.885119104385376332e+00
8.488694243431091024e+00
8.404467196464539214e+00
8.093317594528198100e+00
7.926961989402770747e+00
8.053816404342651225e+00
7.683290514945984029e+00
7.549232482910156250e+00
7.385965352058410538e+00
7.365345349311828826e+00
7.312880201339721609e+00
7.146081900596618297e+00
7.088984503746032395e+00
7.123700184822082448e+00
6.770964508056640518e+00
6.705606670379638423e+00
6.659878182411193670e+00
6.625645031929016326e+00
6.551057462692260636e+00
6.498283157348632599e+00
6.572336783409118866e+00
6.573543467521667516e+00
6.499340662956237580e+00
6.463009619712829945e+00
6.454195132255554412e+00
6.414916439056396413e+00
6.376605963706969860e+00
6.203462772369384481e+00
6.087978067398071680e+00
6.081147012710570898e+00
6.007737956047058070e+00
6.026943330764770401e+00
5.962799539566040252e+00
5.912140526771545446e+00
5.918320255279541087e+00
5.941404538154602122e+00
5.869155993461609100e+00
5.849932050704955699e+00
