2.550642651748657102e+02
2.736512060165405202e+01
1.774971591949462990e+01
1.610237500190734750e+01
1.482334992408752505e+01
1.378229593276977560e+01
1.277398818016052218e+01
1.200870471954345753e+01
1.121642425537109311e+01
1.061829742431640611e+01
1.019739095687866204e+01
9.889256334304809215e+00
9.368603887557982901e+00
9.128331232070923562e+00
8.940618147850036834e+00
8.652535176277160289e+00
8.519642019271850941e+00
8.340536108016967987e+00
8.244363570213318226e+00
8.020423879623413299e+00
8.032718553543091389e+00
7.832665529251098491e+00
7.872022809982300195e+00
7.761791381835937642e+00
7.673739132881164160e+00
7.662682995796203933e+00
7.550587944984435751e+00
7.223220386505126989e+00
7.181513018608093546e+00
7.133879241943358984e+00
7.053854360580444016e+00
6.922006239891052459e+00
6.860454168319702006e+00
6.835420861244201340e+00
6.809289536476135218e+00
6.823616232872009135e+00
6.740310978889465510e+00
6.716064510345458594e+00
6.687723751068115341e+00
6.682944874763489196e+00
6.602581577301025462e+00
6.604475622177123917e+00
6.554092035293579421e+00
6.505967621803283585e+00
6.512193226814270375e+00
6.518265018463134552e+00
6.454875221252441619e+00
6.457210636138915660e+00
6.451852622032165918e+00
6.420077652931213130e+00
