3.185330192565918139e+01
8.240568412780761776e+01
1.721092411041259851e+01
1.811001461029052706e+01
1.520621397018432575e+01
1.391480085372924869e+01
1.368804698944091847e+01
1.212850330352783246e+01
1.120754421234130938e+01
1.193543119430541921e+01
1.101579601287841825e+01
1.105016510009765618e+01
1.265114978790283118e+01
9.878656139373779510e+00
1.082691205978393612e+01
9.253136920928955789e+00
9.889416599273681996e+00
9.113697013854981321e+00
8.873169336318969869e+00
8.977398424148558931e+00
8.959671497344970703e+00
9.828603372573851971e+00
8.446300239562988921e+00
8.683585004806518626e+00
8.517293272018433115e+00
8.676339368820190856e+00
8.206802845001220703e+00
8.365137138366698366e+00
8.314537410736084766e+00
8.007289972305297709e+00
8.054947185516358132e+00
8.067463912963866335e+00
8.150673809051513174e+00
8.096603565216064169e+00
7.984142923355102894e+00
7.923890037536621023e+00
7.947419691085815252e+00
8.014702405929565288e+00
7.984606952667236079e+00
7.893513822555542347e+00
7.804240264892578161e+00
7.801854400634765874e+00
7.837847042083740057e+00
7.803260669708252273e+00
7.978578643798828196e+00
7.894198818206787038e+00
7.788754787445068217e+00
7.808343276977539382e+00
7.797437286376952770e+00
7.716626548767090199e+00
