2.714134547042846748e+02
2.864620761871337962e+01
1.831226913452148608e+01
1.647569742202758647e+01
1.528221658706664954e+01
1.411544672966003411e+01
1.327134907722473223e+01
1.255360980033874441e+01
1.178260114669799741e+01
1.115518136024475027e+01
1.061720126152038546e+01
1.029654678344726548e+01
9.949484148025511843e+00
9.599913864135741548e+00
9.477884292602539062e+00
9.237170066833495952e+00
8.971624770164488893e+00
8.902279596328735778e+00
8.723038654327393004e+00
8.726411185264588255e+00
8.519875769615174121e+00
8.142673978805541779e+00
8.007665672302245241e+00
7.988226337432861257e+00
7.940012784004211177e+00
7.900626373291015803e+00
7.624943008422851776e+00
7.610255584716797195e+00
7.570171184539795206e+00
7.518637704849242986e+00
7.506844835281372141e+00
7.564294209480285858e+00
7.457772641181946049e+00
7.426055798530578400e+00
7.482665400505066344e+00
7.276001329421997177e+00
7.236599888801574565e+00
7.188371334075927876e+00
7.176593265533447230e+00
7.112188410758972346e+00
7.122617630958557378e+00
7.159048571586608567e+00
7.058293752670287802e+00
7.097299861907958807e+00
7.070134911537170552e+00
7.059775700569153045e+00
7.081138987541198304e+00
6.995380992889404403e+00
7.021183810234069789e+00
7.002889685630798056e+00
